﻿{
  "iisSettings": {
    "windowsAuthentication": false,
    "anonymousAuthentication": true,
    "iisExpress": {
      "applicationUrl": "http://localhost:5001/",
      "sslPort": 0
    }
  },
  "profiles": {
    "THEX PDV DEV": {
      "commandName": "Project",
      "launchBrowser": true,
      "environmentVariables": {
        "ASPNETCORE_ENVIRONMENT": "Development",
        "Serilog:MinimumLevel": "Debug"
      },
      "applicationUrl": "http://localhost:5001/"
    },
    "THEX PDV PROD": {
      "commandName": "Project",
      "launchBrowser": true,
      "environmentVariables": {
        "ASPNETCORE_ENVIRONMENT": "Production"
      },
      "applicationUrl": "http://localhost:5001/"
    }
  }
}