{
  "$schema": "../../node_modules/ng-packagr/ng-package.schema.json",
  "dest": "../../dist/ui",
  "deleteDestPath": false,
  "lib": {
    "entryFile": "src/public_api.ts",
    "styleIncludePaths": ["../../styles"]
  },
  "whitelistedNonPeerDependencies": [
    "popper.js",
    "@swimlane/ngx-charts"
  ]
}
