﻿{
  "culture": "pt-BR",
  "texts": {
    "ReservationMustHaveCode": "Informe um valor para o campo Código",
    "ReservationOutOfBoundCode": "O campo Código excede o tamanho limite de 100",
    "ReservationMustHaveGuestName": "Informe um valor para o campo Nome do Hóspede",
    "ReservationOutOfBoundGuestName": "O campo Nome do Hóspede excede o tamanho limite de 100",
    "ReservationMustHaveNumberOfGuests": "A reserva deve conter o Número de Hóspedes",
    "ReservationMustHaveId": "A reserva deve conter um Id",
    "EmailAdministrator": "Título => Nova reserva, Mensagem => nova reserva para o quarto {0}, Hóspede => {1}",
    "EmailGuest": "Title => Sua reserva foi confirmada, Message => Obrigado por reservar, Hóspede => {0}",
    "RoomNotAvailable": "O quarto não está disponível nesse período",
    "InvalidPeriodOfCheckinAndCheckout": "Período inválido de check-in e check-out"
  }
}