﻿{
  "culture": "pt-PT",
  "texts": {
    "AccountInvalidCreationTime": "Informe uma valor valido para o campo CreationTime",
    "AccountInvalidDeletionTime": "Informe uma valor valido para o campo DeletionTime",
    "AccountInvalidLastModificationTime": "Informe uma valor valido para o campo LastModificationTime",
    "AccountMustHaveId": "Informe um valor para o campo Id",
    "ActivityHistoryInvalidCreationTime": "Informe uma valor valido para o campo CreationTime",
    "ActivityHistoryMustHaveAccountId": "Informe um valor para o campo AccountId",
    "ActivityMustHaveName": "Informe um valor para o campo Name",
    "ActivityOutOfBoundName": "O campo Name excede o tamanho limite de 20",
    "AcquirerMustHaveAcquirerName": "Informe um valor para o campo AcquirerName",
    "AcquirerOutOfBoundAcquirerName": "O campo AcquirerName excede o tamanho limite de 50",
    "AmenityMustHaveAmenityTypeId": "Informe um valor para o campo AmenityTypeId",
    "AmenityMustHaveName": "Informe um valor para o campo Name",
    "AmenityMustHaveTypeId": "Informe um valor para o campo TypeId",
    "AmenityOutOfBoundName": "O campo Name excede o tamanho limite de 50",
    "AmenityTypeMustHaveName": "Informe um valor para o campo Name",
    "AmenityTypeOutOfBoundName": "O campo Name excede o tamanho limite de 50",
    "ArrivingByBus": "Ônibus",
    "ArrivingByCar": "Automóvel",
    "ArrivingByMotorcycle": "Moto",
    "ArrivingByOther": "Outro",
    "ArrivingByPlane": "Avião",
    "ArrivingByShipOrFerryBoat": "Navio/Barco",
    "ArrivingByTrain": "Trem",
    "BedTypeMustHaveName": "Informe um valor para o campo Name",
    "BedTypeOutOfBoundName": "O campo Name excede o tamanho limite de 20",
    "Billing": "Faturamento",
    "BillingAccountInvalidEndDate": "Informe uma valor valido para o campo EndDate",
    "BillingAccountInvalidStartDate": "Informe uma valor valido para o campo StartDate",
    "BillingAccountMustHaveMarketSegmentId": "Informe um valor para o campo MarketSegmentId",
    "BillingAccountMustHaveBusinessSourceId": "Informe um valor para o campo BusinessSourceId",
    "BillingAccountItemMustHaveBillingAccountId": "Informe um valor para o campo BillingAccountId",
    "BillingAccountItemMustHaveBillingAccountItemTypeId": "Informe um valor para o campo BillingAccountItemTypeId",
    "BillingAccountItemOutOfBoundBillingAccountItemComments": "O campo BillingAccountItemComments excede o tamanho limite de 500",
    "BillingAccountItemOutOfBoundCheckNumber": "O campo CheckNumber excede o tamanho limite de 100",
    "BillingAccountItemOutOfBoundNsu": "O campo Nsu excede o tamanho limite de 100",
    "BillingAccountItemInvalidBillingAccountItemDate": "Informe uma valor valido para o campo BillingAccountItemDate",
    "BillingAccountItemMustHaveBillingAccountItemComments": "Informe um valor para o campo BillingAccountItemComments",
    "BillingAccountItemMustHaveBillingAccountItemReasonId": "Informe um valor para o campo BillingAccountItemReasonId",
    "BillingAccountItemMustHaveBillingccountItemReasonId": "Informe um valor para o campo BillingAccountItemReasonId",
    "BillingAccountItemTransferInvalidTransferDate": "Informe uma valor valido para o campo TransferDate",
    "BillingAccountItemTransferMustHaveBillingAccountIdDestination": "Informe um valor para o campo BillingAccountIdDestination",
    "BillingAccountItemTransferMustHaveBillingAccountIdSource": "Informe um valor para o campo BillingAccountIdSource",
    "BillingAccountItemTransferMustHaveBillingAccountItemId": "Informe um valor para o campo BillingAccountItemId",
    "BillingAccountItemTypeMustHaveBillingAccountItemTypeName": "Informe um valor para o campo BillingAccountItemTypeName",
    "BillingAccountItemTypeOutOfBoundBillingAccountItemTypeName": "O campo BillingAccountItemTypeName excede o tamanho limite de 100",
    "BillingAccountMustHaveBillingAccountTypeId": "Informe um valor para o campo BillingAccountTypeId",
    "BillingItemCategoryMustHaveCategoryName": "Informe um valor para o campo CategoryName",
    "BillingItemCategoryOutOfBoundCategoryName": "O campo CategoryName excede o tamanho limite de 100",
    "BillingItemPaymentConditionMustHaveBillingItemId": "Informe um valor para o campo BillingItemId",
    "BillingItemTypeMustHaveBillingItemTypeName": "Informe um valor para o campo BillingItemTypeName",
    "BillingItemTypeOutOfBoundBillingItemTypeName": "O campo BillingItemTypeName excede o tamanho limite de 100",
    "BillingAccountTypeMustHaveTypeName": "Informe um valor para o campo TypeName",
    "BillingAccountTypeOutOfBoundTypeName": "O campo TypeName excede o tamanho limite de 100",
    "BillingItemMustHaveBillingItemTypeId": "Informe um valor para o campo BillingItemTypeId",
    "BillingItemMustHaveBillingItemName": "Informe um valor para o campo BillingItemName",
    "BillingItemOutOfBoundBillingItemName": "O campo BillingItemName excede o tamanho limite de 100",
    "BillingItemOutOfBoundDescription": "O campo Description excede o tamanho limite de 200",
    "BillingItemOutOfBoundIntegrationCode": "O campo IntegrationCode excede o tamanho limite de 100",
    "BillingTaxMustHaveBillingItemId": "Informe um valor para o campo BillingItemId",
    "BillingTaxMustHaveBillingItemTaxId": "Informe um valor para o campo BillingItemTaxId",
    "BillingTaxInvalidBeginDate": "Informe uma valor valido para o campo BeginDate",
    "BillingTaxInvalidEndDate": "Informe uma valor valido para o campo EndDate",
    "BillingAccountMustHavePersonId": "Informe um valor para o campo PersonId",
    "BillingAccountMustHaveStatusId": "Informe um valor para o campo StatusId",
    "BillingAccountPersonIdRequired": "Informe um valor para o campo PersonId",
    "BillingAccountReservationIdIsNull": "O campo ReservationId não deve ser preenchido",
    "BillingAccountReservationIdRequired": "Informe um valor para o campo ReservationId",
    "BillingAccountStatusIdInvalidate": "Tipo de Status Invalido para criação de conta",
    "BillingAccountMustHavePropertyId": "Informe um valor para o campo PropertyId",
    "BrandMustHaveChainId": "Informe um valor para o campo ChainId",
    "BrandMustHaveName": "Rede deve ter um nome",
    "BrandOutOfBoundName": "O campo Name excede o tamanho limite de 50",
    "BusinessSourceMustHaveDescription": "Informe um valor para o campo Description",
    "BusinessSourceOutOfBoundDescription": "O campo Description excede o tamanho limite de 50",
    "ChannelMustHaveChannelCodeId": "Informe um valor para o campo ChannelCodeId",
    "ChannelMustHaveDescription": "Informe um valor para o campo Description",
    "ChannelOutOfBoundDescription": "O campo Description excede o tamanho limite de 60",
    "ChannelCodeMustHaveChannelCode1": "Informe um valor para o campo ChannelCode1",
    "ChannelCodeOutOfBoundChannelCode1": "O campo ChannelCode1 excede o tamanho limite de 20",
    "ChannelCodeOutOfBoundChannelCodeDescription": "O campo ChannelCodeDescription excede o tamanho limite de 200",
    "Canceled": "Cancelada",
    "CatalogOutOfBoundName": "O campo Name excede o tamanho limite de 50",
    "CatalogOutOfBoundPhone": "O campo Phone excede o tamanho limite de 18",
    "ChainBusinessSourceMustHaveBusinessSourceId": "Informe um valor para o campo BusinessSourceId",
    "ChainBusinessSourceMustHaveChainId": "Informe um valor para o campo ChainId",
    "ChainBusinessSourceMustHaveId": "Informe um valor para o campo Id",
    "ChainMarketSegmentMustHaveChainId": "Informe um valor para o campo ChainId",
    "ChainMarketSegmentMustHaveId": "Informe um valor para o campo Id",
    "ChainMarketSegmentMustHaveMarketSegmentId": "Informe um valor para o campo MarketSegmentId",
    "ChainMustHaveName": "Informe um valor para o campo Name",
    "ChainOutOfBoundName": "O campo Name excede o tamanho limite de 50",
    "Checkin": "Check-In",
    "Checkout": "Check-Out",
    "ClaimMustHaveKey": "Informe um valor para o campo Key",
    "ClaimMustHaveName": "Informe um valor para o campo Name",
    "ClaimOutOfBoundKey": "O campo Key excede o tamanho limite de 8000",
    "ClaimOutOfBoundName": "O campo Name excede o tamanho limite de 8000",
    "Commercial": "Comercial",
    "CompanyClientContactPersonMustHaveCompanyClientId": "Informe um valor para o campo CompanyClientId",
    "CompanyClientContactPersonMustHavePersonId": "Informe um valor para o campo PersonId",
    "CompanyClientHasInvalidPersonType": "O cliente deve ser do tipo Pessoa Física ou Jurídica.",
    "CompanyClientLocationListGreaterThanAllowed": "O máximo de endereços permitidos para o Cliente é de 5.",
    "CompanyClientLocationListHasDuplicates": "Os endereços devem ser distintos ou seja não podem haver dois com o mesmo propósito (ex: Dois endereços para cobrança).",
    "CompanyClientMustHaveCommercialLocation": "Informe por favor o endereço comercial do Cliente",
    "CompanyClientMustHaveCompanyId": "Informe um valor para o campo CompanyId",
    "CompanyClientMustHaveEmail": "Informe um valor para o campo Email.",
    "CompanyClientMustHaveHomePage": "Informe um valor para o campo WebSite.",
    "CompanyClientMustHaveId": "Informe um valor para o campo Id",
    "CompanyClientMustHavePersonId": "Informe um valor para o campo PersonId",
    "CompanyClientMustHaveShortName": "Informe um valor para o campo ShortName",
    "CompanyClientMustHaveTradeName": "Informe um valor para o campo TradeName",
    "CompanyClientOutOfBoundShortName": "O campo ShortName excede o tamanho limite de 50",
    "CompanyClientOutOfBoundTradeName": "O campo TradeName excede o tamanho limite de 200",
    "CompanyContactPersonMustHaveCompanyId": "Informe um valor para o campo CompanyId",
    "CompanyContactPersonMustHavePersonId": "Informe um valor para o campo PersonId",
    "CompanyMustHaveId": "Informe um valor para o campo Id",
    "CompanyMustHavePersonId": "Informe um valor para o campo PersonId",
    "CompanyMustHaveShortName": "Informe um valor para o campo ShortName",
    "CompanyMustHaveTradeName": "Informe um valor para o campo TradeName",
    "CompanyOutOfBoundShortName": "O campo ShortName excede o tamanho limite de 50",
    "CompanyOutOfBoundTradeName": "O campo TradeName excede o tamanho limite de 200",
    "Confirmed": "Confirmada",
    "Contact": "Pessoa de Contato",
    "ContactInformationMustHaveContactInformationTypeId": "Informe um valor para o campo ContactInformationTypeId",
    "ContactInformationMustHaveInformation": "Informe um valor para o campo Information",
    "ContactInformationMustHaveOwnerId": "Informe um valor para o campo OwnerId",
    "ContactInformationOutOfBoundInformation": "O campo Information excede o tamanho limite de 500",
    "ContactInformationTypeMustHaveName": "Informe um valor para o campo Name",
    "ContactInformationTypeOutOfBoundName": "O campo Name excede o tamanho limite de 50",
    "ContactInformationTypeOutOfBoundRegexValidationExpression": "O campo RegexValidationExpression excede o tamanho limite de 500",
    "ContactInformationTypeOutOfBoundStringFormatMask": "O campo StringFormatMask excede o tamanho limite de 100",
    "Correspondence": "Correspondência",
    "CouldNotChangeStatus": "Não foi possível trocar de status",
    "CountryLanguageMustHaveCountrySubdivisionId": "Informe um valor para o campo CountrySubdivisionId",
    "CountryLanguageMustHaveLanguage": "Informe um valor para o campo Language",
    "CountryLanguageOutOfBoundCultureInfoCode": "O campo CultureInfoCode excede o tamanho limite de 20",
    "CountryLanguageOutOfBoundLanguage": "O campo Language excede o tamanho limite de 60",
    "CountryLanguageOutOfBoundLanguageThreeLetterIsoCode": "O campo LanguageThreeLetterIsoCode excede o tamanho limite de 3",
    "CountryLanguageOutOfBoundLanguageTwoLetterIsoCode": "O campo LanguageTwoLetterIsoCode excede o tamanho limite de 2",
    "CountryPersonDocumentTypeMustHaveCountrySubdivisionId": "Informe um valor para o campo CountrySubdivisionId",
    "CountryPersonDocumentTypeMustHaveDocumentTypeId": "Informe um valor para o campo DocumentTypeId",
    "CountryPersonDocumentTypeMustHavePersonType": "Informe um valor para o campo PersonType",
    "CountryPersonDocumentTypeMustHaveType": "Informe um valor para o campo Type",
    "CountryPersonDocumentTypeMustHaveTypeId": "Informe um valor para o campo TypeId",
    "CountryPersonDocumentTypeOutOfBoundPersonType": "O campo PersonType excede o tamanho limite de 1",
    "CountryPersonDocumentTypeOutOfBoundType": "O campo Type excede o tamanho limite de 1",
    "CountrySubdivisionMustHaveCountryIsoCode": "Informe um valor para o campo CountryIsoCode",
    "CountrySubdivisionOutOfBoundCountryIsoCode": "O campo CountryIsoCode excede o tamanho limite de 2",
    "CountrySubdivisionOutOfBoundCountryThreeLetterIsoCode": "O campo CountryThreeLetterIsoCode excede o tamanho limite de 3",
    "CountrySubdivisionOutOfBoundCountryTwoLetterIsoCode": "O campo CountryTwoLetterIsoCode excede o tamanho limite de 2",
    "CountrySubdivisionOutOfBoundExternalCode": "O campo ExternalCode excede o tamanho limite de 20",
    "CountrySubdivisionOutOfBoundIsoCode": "O campo IsoCode excede o tamanho limite de 10",
    "CountrySubdivisionOutOfBoundOfficialLegal": "O campo OfficialLegal excede o tamanho limite de 20",
    "CountrySubdivisionOutOfBoundOfficialNatural": "O campo OfficialNatural excede o tamanho limite de 20",
    "CountrySubdivisionOutOfBoundThreeLetterIsoCode": "O campo ThreeLetterIsoCode excede o tamanho limite de 3",
    "CountrySubdivisionOutOfBoundTwoLetterIsoCode": "O campo TwoLetterIsoCode excede o tamanho limite de 2",
    "CountrySubdivisionTranslationCountryCodeNotEqualGeocodeCountryShortName": "O CountryCode informado deve coinscidir com o do País",
    "CountrySubdivisionTranslationGeocodeApiReturnError": "Ocorreu um erro ao tentar localizar o Endereço informado, por favor, tente novamente. Caso o erro se repita entre em contato com o suporte.",
    "CountrySubdivisionTranslationGeocodeApiReturnZeroResults": "Não conseguimos localizar o Endereço informado, por favor, verifique os dados e tente novamente. Caso o erro se repita entre em contato com o suporte.",
    "CountrySubdivisionTranslationInvalidLanguage": "Linguagem não suportada, utilize uma das linguagens ao lado: 'ar','bg','bn','ca','cs','da','de','el','en','en-AU','en-GB','es','eu','eu','fa','fi','fil','fr','gl','gu','hi','hr','hu','id','it','iw','ja','kn','ko','lt','lv','ml','mr','nl','no','pl','pt','pt-BR','pt-PT','ro','ru','sk','sl','sr','sv','ta','te','th','tl','tr','uk','vi','zh-CN','zh -TW'",
    "CountrySubdivisionTranslationMustHaveCountryCode": "Informa um valor para o campo CountryCode",
    "CountrySubdivisionTranslationMustHaveCountrySubdivisionId": "Informe um valor para o campo CountrySubdivisionId",
    "CountrySubdivisionTranslationMustHaveLanguageIsoCode": "Informe um valor para o campo LanguageIsoCode",
    "CountrySubdivisionTranslationMustHaveName": "Informe um valor para o campo Name",
    "CountrySubdivisionTranslationOutOfBoundLanguageIsoCode": "O campo LanguageIsoCode excede o tamanho limite de 5",
    "CountrySubdivisionTranslationOutOfBoundName": "O campo Name excede o tamanho limite de 50",
    "CountrySubdivisionTranslationOutOfBoundNationality": "O campo Nationality excede o tamanho limite de 100",
    "Courtesy": "Cortesia",
    "CreditCard": "Cartão de Crédito",
    "DateGreaterThanAnotherDate": "Data Inicial não deve ser maior que Data Final",
    "Delivery": "Entrega",
    "Deposit": "Depósito",
    "DocumentMustHaveDocumentInformation": "Informe um valor para o campo DocumentInformation",
    "DocumentMustHaveDocumentTypeId": "Informe um valor para o campo DocumentTypeId",
    "DocumentMustHaveInformation": "Informe um valor para o campo Information",
    "DocumentMustHaveTypeId": "Informe um valor para o campo TypeId",
    "DocumentOutOfBoundDocumentInformation": "O campo DocumentInformation excede o tamanho limite de 20",
    "DocumentOutOfBoundInformation": "O campo Information excede o tamanho limite de 20",
    "DocumentTypeMustHaveCountryCode": "Informe um valor para o campo CountryCode",
    "DocumentTypeMustHaveCountrySubdivisionId": "Informe um valor para o campo CountrySubdivisionId",
    "DocumentTypeMustHaveName": "Informe um valor para o campo Name",
    "DocumentTypeMustHavePersonType": "Informe um valor para o campo PersonType",
    "DocumentTypeOutOfBoundCountryCode": "O campo CountryCode excede o tamanho limite de 2",
    "DocumentTypeOutOfBoundName": "O campo Name excede o tamanho limite de 50",
    "DocumentTypeOutOfBoundPersonType": "O campo PersonType excede o tamanho limite de 1",
    "DocumentTypeOutOfBoundRegexValidationExpression": "O campo RegexValidationExpression excede o tamanho limite de 500",
    "DocumentTypeOutOfBoundStringFormatMask": "O campo StringFormatMask excede o tamanho limite de 100",
    "EmployeeMustHaveOccupationId": "Informe um valor para o campo OccupationId",
    "EmployeeMustHavePersonId": "Informe um valor para o campo PersonId",
    "EntityDateMustBeBetween": "O campo {1} da entidade {0} deve estar entre as datas {2} e {3}",
    "EntityMustHaveField": "O campo {1} da entidade {0} é obrigatório",
    "EntityMustHaveValidField": "O campo {1} da entidade {0} não é válido",
    "EntityNotExist": "A entidade {0} que você deseja excluir não foi encontrada",
    "FacilityMustHaveName": "Informe um valor para o campo Name",
    "FacilityOutOfBoundName": "O campo Name excede o tamanho limite de 100",
    "FieldMinimumOfCharacteres": "O mínimo de caracteres para o campo de busca é de {0}",
    "FieldRequired": "O campo {0} é obrigatório",
    "GuestRegistrationInvalidBirthDate": "Informe uma valor valido para o campo BirthDate",
    "GuestRegistrationMustHaveArrivingBy": "Informe um valor para o campo ArrivingBy",
    "GuestRegistrationMustHaveArrivingFrom": "Informe um valor para o campo ArrivingFrom",
    "GuestRegistrationMustHaveArrivingFromText": "Informe um valor para o campo ArrivingFromText",
    "GuestRegistrationMustHaveEmail": "Informe um valor para o campo Email",
    "GuestRegistrationMustHaveFirstName": "Informe um valor para o campo FirstName",
    "GuestRegistrationMustHaveFullName": "Informe um valor para o campo FullName",
    "GuestRegistrationMustHaveGender": "Informe um valor para o campo Gender",
    "GuestRegistrationMustHaveGuestTypeId": "Informe um valor para o campo GuestTypeId",
    "GuestRegistrationMustHaveLastName": "Informe um valor para o campo LastName",
    "GuestRegistrationMustHaveMobilePhoneNumber": "Informe um valor para o campo MobilePhoneNumber",
    "GuestRegistrationMustHaveNationality": "Informe um valor para o campo Nationality",
    "GuestRegistrationMustHaveNextDestinationText": "Informe um valor para o campo NextDestinationText",
    "GuestRegistrationMustHaveOccupation": "Informe um valor para o campo Occupation",
    "GuestRegistrationMustHaveOccupationId": "Informe um valor para o campo OccupationId",
    "GuestRegistrationMustHavePurposeOfTrip": "Informe um valor para o campo PurposeOfTrip",
    "GuestRegistrationOutOfBoundAdditionalInformation": "O campo AdditionalInformation excede o tamanho limite de 8000",
    "GuestRegistrationOutOfBoundArrivingFromText": "O campo ArrivingFromText excede o tamanho limite de 100",
    "GuestRegistrationOutOfBoundEmail": "O campo Email excede o tamanho limite de 200",
    "GuestRegistrationOutOfBoundFirstName": "O campo FirstName excede o tamanho limite de 200",
    "GuestRegistrationOutOfBoundFullName": "O campo FullName excede o tamanho limite de 500",
    "GuestRegistrationOutOfBoundGender": "O campo Gender excede o tamanho limite de 1",
    "GuestRegistrationOutOfBoundHealthInsurance": "O campo HealthInsurance excede o tamanho limite de 200",
    "GuestRegistrationOutOfBoundLastName": "O campo LastName excede o tamanho limite de 200",
    "GuestRegistrationOutOfBoundMobilePhoneNumber": "O campo MobilePhoneNumber excede o tamanho limite de 50",
    "GuestRegistrationOutOfBoundNextDestinationText": "O campo NextDestinationText excede o tamanho limite de 100",
    "GuestRegistrationOutOfBoundOccupation": "O campo Occupation excede o tamanho limite de 200",
    "GuestRegistrationOutOfBoundPhoneNumber": "O campo PhoneNumber excede o tamanho limite de 50",
    "GuestRegistrationOutOfBoundPurposeOfTrip": "O campo PurposeOfTrip excede o tamanho limite de 200",
    "GuestRegistrationOutOfBoundSocialName": "O campo SocialName excede o tamanho limite de 500",
    "GeneralOccupationAccountant": "Contador",
    "GeneralOccupationArchitect": "Arquiteto",
    "GeneralOccupationBaker": "Padeiro",
    "GeneralOccupationBanker": "Banqueiro",
    "GeneralOccupationBarber": "Barbeiro",
    "GeneralOccupationBricklayer": "Pedreiro",
    "GeneralOccupationBusdriver": "Motorista de ônibus",
    "GeneralOccupationButcher": "Açougueiro",
    "GeneralOccupationCaretaker": "Zelador",
    "GeneralOccupationCarpenter": "Carpinteiro",
    "GeneralOccupationChef": "Chefe de cozinha",
    "GeneralOccupationDriver": "Motorista",
    "GeneralOccupationEconomist": "Economista",
    "GeneralOccupationElectrician": "Eletricista",
    "GeneralOccupationEngineer": "Engenheiro",
    "GeneralOccupationFirefighter": "Bombeiro",
    "GeneralOccupationFlightattendant": "Comissária de bordo",
    "GeneralOccupationFlorist": "Florista",
    "GeneralOccupationGardener": "Jardineiro",
    "GeneralOccupationGoldsmith": "Ourives",
    "GeneralOccupationGraphicDesigner": "Designer gráfico",
    "GeneralOccupationHairdresser": "Cabeleireiro",
    "GeneralOccupationJournalist": "Jornalista",
    "GeneralOccupationJudge": "Juiz",
    "GeneralOccupationLawyer": "Advogado",
    "GeneralOccupationLibrarian": "Bibliotecário",
    "GeneralOccupationLifeguard": "Salva-vidas",
    "GeneralOccupationMechanic": "Mecânico",
    "GeneralOccupationMustHaveOccupation": "Informe um valor para o campo Occupation",
    "GeneralOccupationOutOfBoundOccupation": "O campo Occupation excede o tamanho limite de 100",
    "GeneralOccupationPhotographer": "Fotógrafo",
    "GeneralOccupationPilot": "Piloto",
    "GeneralOccupationPlumber": "Encanador",
    "GeneralOccupationPoliceOfficer": "Policial",
    "GroupMustHaveName": "Informe um valor para o campo Name",
    "GroupOutOfBoundName": "O campo Name excede o tamanho limite de 50",
    "GuestReservationInvalidSumOfPctDaily": "A soma do percentual da tarifa diária dos hóspedes deve ser igual a 100%",
    "GuestReservationItemEntityDescription": "Hóspede da reserva",
    "GuestReservationItemEstimatedDateWithInvalidPeriodBasedOnReservation": "O período de estadia do hospede deve coincidir com o período da reserva",
    "GuestReservationItemHasInvalidReservationItemStatusToAssociate": "O Status atual da Reserva não permite a associação deste hóspede",
    "GuestReservationItemHasInvalidReservationItemStatusToDelete": "O Status atual da Reserva não permite a deleção deste hóspede",
    "GuestReservationItemHasInvalidReservationItemStatusToDisassociate": "O Status atual da Reserva não permite a desassociação deste hóspede",
    "GuestReservationItemInvalidCheckInDate": "Informe uma valor valido para o campo CheckInDate",
    "GuestReservationItemInvalidCheckOutDate": "Informe uma valor valido para o campo CheckOutDate",
    "GuestReservationItemInvalidChildAge": "Idade inválida para a criança",
    "GuestReservationItemInvalidEstimatedArrivalDate": "Informe uma valor valido para o campo EstimatedArrivalDate",
    "GuestReservationItemInvalidEstimatedDepartureDate": "Informe uma valor valido para o campo EstimatedDepartureDate",
    "GuestReservationItemModifyOrDeleteNotAllowed": "Não é possível alterar os hóspedes deste reserva",
    "GuestReservationItemMustHaveGuestStatusId": "Informe um valor para o campo GuestStatusId",
    "GuestReservationItemMustHaveGuestTypeId": "Informe um valor para o campo GuestTypeId",
    "GuestReservationItemMustHaveItemId": "Informe um valor para o campo ItemId",
    "GuestReservationItemMustHaveReservationItemId": "Informe um valor para o campo ReservationItemId",
    "GuestReservationItemMustHaveTypeId": "Informe um valor para o campo TypeId",
    "GuestReservationItemOutOfBoundActivity": "O campo Activity excede o tamanho limite de 20",
    "GuestReservationItemOutOfBoundCitizenship": "O campo Citizenship excede o tamanho limite de 50",
    "GuestReservationItemOutOfBoundEmail": "O campo Email excede o tamanho limite de 100",
    "GuestReservationItemOutOfBoundGuestCitizenship": "O campo GuestCitizenship excede o tamanho limite de 50",
    "GuestReservationItemOutOfBoundGuestDocument": "O campo GuestDocument excede o tamanho limite de 20",
    "GuestReservationItemOutOfBoundGuestEmail": "O campo GuestEmail excede o tamanho limite de 100",
    "GuestReservationItemOutOfBoundGuestLanguage": "O campo GuestLanguage excede o tamanho limite de 50",
    "GuestReservationItemOutOfBoundGuestName": "O campo GuestName excede o tamanho limite de 100",
    "GuestReservationItemOutOfBoundLanguage": "O campo Language excede o tamanho limite de 50",
    "GuestReservationItemOutOfBoundName": "O campo Name excede o tamanho limite de 100",
    "GuestReservationItemOutOfBoundPreferredName": "O campo PreferredName excede o tamanho limite de 100",
    "GuestReservationItemSumOfListOfPctDailyRateGreaterThanAllowed": "A soma do [pctDailyRate] dos hóspedes não pode ultrapassar 100%",
    "GuestReservationItemTotalAdultsInvalid": "O total de adultos informado no item da reserva não condiz com o total de hóspedes adultos enviados.",
    "GuestReservationItemTotalChildsInvalid": "O total de crianças informado no item da reserva não condiz com o total de hóspedes crianças guests enviados.",
    "GuestReservationItemTotalOfListOfIsMainGreaterThanAllowed": "Apenas um hóspede poderá ser o principal da reserva",
    "Hotel": "Hotel",
    "IdIsMissing": "Id deve ter um valor",
    "InternalUsage": "Uso da Casa",
    "InvalidCast": "Conversão de tipos inválida",
    "InvalidConstructor": "Este construtor não pode ser utilizado. Utilize uma classe que implemente outra versão do construtor.",
    "InvalidEnumType": "Tipo Enum invalido. O tipo {0} deve ser um Enum",
    "InvalidInputString": "String 'inString' inválida. A string {0} deve ser comvatível com o Enum {1}",
    "InvalidOrderBy": "Tipo de ordenação não permitida",
    "IntegrationPartnerMustHaveIntegrationPartnerName": "Informe um valor para o campo IntegrationPartnerName",
    "IntegrationPartnerMustHaveIntegrationPartnerType": "Informe um valor para o campo IntegrationPartnerType",
    "IntegrationPartnerTypeNotFound": "Parceiro de integração não encontrado",
    "Legal": "Pessoa Jurídica",
    "LocationCategoryMustHaveName": "Informe um valor para o campo Name",
    "LocationCategoryMustHaveRecordScope": "Informe um valor para o campo RecordScope",
    "LocationCategoryOutOfBoundName": "O campo Name excede o tamanho limite de 50",
    "LocationCategoryOutOfBoundRecordScope": "O campo RecordScope excede o tamanho limite de 1",
    "LocationCompleteAddressPostalCode": "CEP",
    "LocationMustHaveCategoryId": "Informe um valor para o campo CategoryId",
    "LocationMustHaveCityId": "Informe um valor para o campo Cidade",
    "LocationMustHaveCountryCode": "Informe um valor para o campo CountryCode",
    "LocationMustHaveLocationCategoryId": "Informe um valor para o campo LocationCategoryId",
    "LocationMustHaveStreetName": "Informe um valor para o campo StreetName",
    "LocationMustHaveStreetNumber": "Informe um valor para o campo StreetNumber",
    "LocationOutOfBoundAdditionalAddressDetails": "O campo AdditionalAddressDetails excede o tamanho limite de 50",
    "LocationOutOfBoundCountryCode": "O campo CountryCode excede o tamanho limite de 2",
    "LocationOutOfBoundNeighborhood": "O campo Neighborhood excede o tamanho limite de 100",
    "LocationOutOfBoundStreetName": "O campo StreetName excede o tamanho limite de 200",
    "LocationOutOfBoundStreetNumber": "O campo StreetNumber excede o tamanho limite de 50",
    "MarketSegmentCannotDeleteWithChild": "Não é possível excluir um segmento principal com secundários associados.",
    "MarketSegmentMustHaveName": "Informe um valor para o campo Name",
    "MarketSegmentOutOfBoundName": "O campo Name excede o tamanho limite de 50",
    "MarketSegmentMustHaveCode": "Informe um valor para o campo Code",
    "MarketSegmentOutOfBoundCode": "O campo Code excede o tamanho limite de 20",
    "MarketSegmentMustHaveSegmentAbbreviation": "Informe um valor para o campo SegmentAbbreviation",
    "MarketSegmentOutOfBoundSegmentAbbreviation": "O campo SegmentAbbreviation excede o tamanho limite de 30",
    "Natural": "Pessoa Física",
    "NoShow": "No-Show",
    "NullOrEmptyObject": "Objeto nulo ou vazio",
    "OccupationMustHaveCompanyId": "Informe um valor para o campo CompanyId",
    "OccupationMustHaveName": "Informe um valor para o campo Name",
    "OccupationOutOfBoundName": "O campo Name excede o tamanho limite de 50",
    "ParameterInvalid": "Paramêtros Inválidos",
    "PaymentTypeMustHavePaymentTypeName": "Informe um valor para o campo PaymentTypeName",
    "PaymentTypeOutOfBoundPaymentTypeName": "O campo PaymentTypeName excede o tamanho limite de 50",
    "Pending": "Pendente",
    "PersonInformationMustHaveInformation": "Informe um valor para o campo Information",
    "PersonInformationMustHaveInformationTypeId": "Informe um valor para o campo InformationTypeId",
    "PersonInformationMustHaveOwnerId": "Informe um valor para o campo OwnerId",
    "PersonInformationMustHavePersonInformationTypeId": "Informe um valor para o campo PersonInformationTypeId",
    "PersonInformationOutOfBoundInformation": "O campo Information excede o tamanho limite de 500",
    "PersonInformationTypeMustHaveName": "Informe um valor para o campo Name",
    "PersonInformationTypeOutOfBoundName": "O campo Name excede o tamanho limite de 50",
    "PersonInvalidDateOfBirth": "Informe uma valor valido para o campo DateOfBirth",
    "PersonLegalDoesNotHaveMainDocument": "Informe por favor o CNPJ do Cliente",
    "PersonMustHaveFirstName": "Informe um valor para o campo FirstName",
    "PersonMustHavePersonType": "Informe um valor para o campo PersonType",
    "PersonMustHaveType": "Informe um valor para o campo Type",
    "PersonNaturalDoesNotHaveMainDocument": "Informe por favor o CPF do Cliente",
    "PersonOutOfBoundFirstName": "O campo FirstName excede o tamanho limite de 200",
    "PersonOutOfBoundLastName": "O campo LastName excede o tamanho limite de 200",
    "PersonOutOfBoundPersonType": "O campo PersonType excede o tamanho limite de 1",
    "PersonOutOfBoundType": "O campo Type excede o tamanho limite de 1",
    "PlasticMustHaveExpirationDate": "Informe um valor para o campo ExpirationDate",
    "PlasticMustHaveHolder": "Informe um valor para o campo Holder",
    "PlasticMustHavePlasticNumber": "Informe um valor para o campo PlasticNumber",
    "PlasticMustHavePlasticBrandId": "Informe um valor para o campo PlasticBrandId",
    "PlasticBrandMustHavePlasticBrandName": "Informe um valor para o campo PlasticBrandName",
    "PlasticBrandOutOfBoundPlasticBrandName": "O campo PlasticBrandName excede o tamanho limite de 100",
    "PlasticBrandPropertyMustHavePlasticBrandId": "Informe um valor para o campo PlasticBrandId",
    "PlasticBrandPropertyMustHavePropertyId": "Informe um valor para o campo PropertyId",
    "PlasticOutOfBoundExpirationDate": "O campo ExpirationDate excede o tamanho limite de 7",
    "PlasticOutOfBoundHolder": "O campo Holder excede o tamanho limite de 150",
    "PlasticOutOfBoundPlasticNumber": "O campo PlasticNumber excede o tamanho limite de 20",
    "PreferredName": "Nome social",
    "PropertyBaseRateHeaderHistoryMustHavePropertyId": "Informe um valor para o campo PropertyId",
    "PropertyBaseRateHeaderHistoryInvalidInitialDate": "Informe uma valor valido para o campo InitialDate",
    "PropertyBaseRateHeaderHistoryInvalidFinalDate": "Informe uma valor valido para o campo FinalDate",
    "PropertyBaseRateHistoryMustHavePropertyId": "Informe um valor para o campo PropertyId",
    "PropertyBaseRateHistoryMustHaveRoomTypeId": "Informe um valor para o campo RoomTypeId",
    "PropertyBaseRateHistoryOutOfBoundCurrencySymbol": "O campo CurrencySymbol excede o tamanho limite de 10",
    "ProfileClaimMustHaveClaimId": "Informe um valor para o campo ClaimId",
    "ProfileClaimMustHaveProfileId": "Informe um valor para o campo ProfileId",
    "PropertyAmenityMustHaveAmenityId": "Informe um valor para o campo AmenityId",
    "PropertyAmenityMustHavePropertyId": "Informe um valor para o campo PropertyId",
    "PropertyContactPersonMustHavePersonId": "Informe um valor para o campo PersonId",
    "PropertyContactPersonMustHavePropertyId": "Informe um valor para o campo PropertyId",
    "PropertyFacilityMustHaveFacilityId": "Informe um valor para o campo FacilityId",
    "PropertyFacilityMustHaveId": "Informe um valor para o campo Id",
    "PropertyFacilityMustHavePropertyId": "Informe um valor para o campo PropertyId",
    "PropertyFacilityTenantMustHaveId": "Informe um valor para o campo TenantId",
    "PropertyGuestPrefsMustHaveGuestId": "Informe um valor para o campo GuestId",
    "PropertyGuestPrefsMustHavePropertyId": "Informe um valor para o campo PropertyId",
    "PropertyGuestTypeMustHaveGuestTypeName": "Informe um valor para o campo GuestTypeName",
    "PropertyGuestTypeMustHavePropertyId": "Informe um valor para o campo PropertyId",
    "PropertyGuestTypeMustHaveTypeName": "Informe um valor para o campo TypeName",
    "PropertyGuestTypeOutOfBoundGuestTypeName": "O campo GuestTypeName excede o tamanho limite de 100",
    "PropertyGuestTypeOutOfBoundTypeName": "O campo TypeName excede o tamanho limite de 100",
    "PropertyInvalidCreationTime": "Informe uma valor valido para o campo CreationTime",
    "PropertyInvalidDeletionTime": "Informe uma valor valido para o campo DeletionTime",
    "PropertyInvalidLastModificationTime": "Informe uma valor valido para o campo LastModificationTime",
    "PropertyMustHaveBrandId": "Informe um valor para o campo BrandId",
    "PropertyMustHaveCompanyId": "Informe um valor para o campo CompanyId",
    "PropertyMustHaveName": "Informe um valor para o campo Name",
    "PropertyMustHavePropertyTypeId": "Informe um valor para o campo PropertyTypeId",
    "PropertyMustHaveTypeId": "Informe um valor para o campo TypeId",
    "PropertyOutOfBoundName": "O campo Name excede o tamanho limite de 200",
    "PropertyTypeMustHaveName": "Informe um valor para o campo Name",
    "PropertyTypeOutOfBoundName": "O campo Name excede o tamanho limite de 50",
    "PurposeOfTripBusiness": "Negócios",
    "PurposeOfTripConventionOrFair": "Congresso/Feira",
    "PurposeOfTripHealth": "Saúde",
    "PurposeOfTripLeisureOrVacation": "Lazer/Férias",
    "PurposeOfTripOther": "Outro",
    "PurposeOfTripRelativesOrFriends": "Parentes/Amigos",
    "PurposeOfTripReligion": "Religião",
    "PurposeOfTripShopping": "Compras",
    "PurposeOfTripStudiesOrCourses": "Estados/Cursos",
    "RateTypeMustHaveRateTypeName": "Informe um valor para o campo RateTypeName",
    "RateTypeOutOfBoundRateTypeName": "O campo RateTypeName excede o tamanho limite de 100",
    "ReasonCategoryMustHaveReasonType": "Informe um valor para o campo ReasonType",
    "ReasonCategoryOutOfBoundReasonType": "O campo ReasonType excede o tamanho limite de 100",
    "ReasonMustHaveChainId": "Informe um valor para o campo ChainId",
    "ReasonMustHaveName": "Informe um valor para o campo Name",
    "ReasonMustHaveReasonCategoryId": "Informe um valor para o campo ReasonCategoryId",
    "ReasonMustHaveReasonName": "Informe um valor para o campo ReasonName",
    "ReasonOutOfBoundName": "O campo Name excede o tamanho limite de 100",
    "ReasonOutOfBoundReasonName": "O campo ReasonName excede o tamanho limite de 100",
    "ReservationBudgetInvalidBudgetDay": "Informe uma valor valido para o campo BudgetDay",
    "ReservationBudgetMustHaveReservationItemId": "Informe um valor para o campo ReservationItemId",
    "ReservationConfirmationHasInvalidFields": "A confirmação da reserva enviada possui campos que não deveriam estar preenchidos",
    "ReservationConfirmationHasInvalidPaymentType": "A confirmação da reserva desse possuir um tipo de pagamento válido",
    "ReservationConfirmationInvalidDeadline": "Informe uma valor valido para o campo Deadline",
    "ReservationConfirmationMustHaveBillingClientId": "Informe um valor para o campo BillingClientId",
    "ReservationConfirmationMustHavePaymentTypeId": "Informe um valor para o campo PaymentTypeId",
    "ReservationConfirmationMustHaveReservationId": "Informe um valor para o campo ReservationId",
    "ReservationInvalidCreationTime": "Informe uma valor valido para o campo CreationTime",
    "ReservationInvalidDeadline": "Informe uma valor valido para o campo Deadline",
    "ReservationInvalidDeletionTime": "Informe uma valor valido para o campo DeletionTime",
    "ReservationInvalidLastModificationTime": "Informe uma valor valido para o campo LastModificationTime",
    "ReservationItemId": "Item da reserva",
    "ReservationItemInvalidCancellationDate": "Informe uma valor valido para o campo CancellationDate",
    "ReservationItemInvalidCheckInDate": "Informe uma valor valido para o campo CheckInDate",
    "ReservationItemInvalidCheckOutDate": "Informe uma valor valido para o campo CheckOutDate",
    "ReservationItemInvalidCreationTime": "Informe uma valor valido para o campo CreationTime",
    "ReservationItemInvalidDeletionTime": "Informe uma valor valido para o campo DeletionTime",
    "ReservationItemInvalidEstimatedArrivalDate": "Informe uma valor valido para o campo EstimatedArrivalDate",
    "ReservationItemInvalidEstimatedDepartureDate": "Informe uma valor valido para o campo EstimatedDepartureDate",
    "ReservationItemInvalidLastModificationTime": "Informe uma valor valido para o campo LastModificationTime",
    "ReservationItemMustHaveItemCode": "Informe um valor para o campo ItemCode",
    "ReservationItemMustHaveItemId": "Informe um valor para o campo ItemId",
    "ReservationItemMustHaveLayoutId": "Informe um valor para o campo LayoutId",
    "ReservationItemMustHaveReceivedRoomTypeId": "Informe um valor para o campo ReceivedRoomTypeId",
    "ReservationItemMustHaveReceivedTypeId": "Informe um valor para o campo ReceivedTypeId",
    "ReservationItemMustHaveRequestedRoomTypeId": "Informe um valor para o campo RequestedRoomTypeId",
    "ReservationItemMustHaveRequestedTypeId": "Informe um valor para o campo RequestedTypeId",
    "ReservationItemMustHaveReservationId": "Informe um valor para o campo ReservationId",
    "ReservationItemMustHaveReservationItemCode": "Informe um valor para o campo ReservationItemCode",
    "ReservationItemMustHaveReservationItemStatusId": "Informe um valor para o campo ReservationItemStatusId",
    "ReservationItemMustHaveRoomLayoutId": "Informe um valor para o campo RoomLayoutId",
    "ReservationItemOutOfBoundCancellationDescription": "O campo CancellationDescription excede o tamanho limite de 1000",
    "ReservationItemOutOfBoundItemCode": "O campo ItemCode excede o tamanho limite de 50",
    "ReservationItemOutOfBoundReservationItemCode": "O campo ReservationItemCode excede o tamanho limite de 50",
    "ReservationItemStatusDoesNotAllowAssociateToGuest": "Status da acomodação não permite associar hóspede",
    "ReservationItemStatusDoesNotAllowDisassociateToGuest": "Status da acomodação não permite desassociar hóspede",
    "ReservationMustHaveCode": "Informe um valor para o campo Code",
    "ReservationMustHavePropertyId": "Informe um valor para o campo PropertyId",
    "ReservationMustHaveReservationCode": "Informe um valor para o campo ReservationCode",
    "ReservationOutOfBoundCode": "O campo Code excede o tamanho limite de 25",
    "ReservationOutOfBoundContactEmail": "O campo ContactEmail excede o tamanho limite de 100",
    "ReservationOutOfBoundContactName": "O campo ContactName excede o tamanho limite de 100",
    "ReservationOutOfBoundContactPhone": "O campo ContactPhone excede o tamanho limite de 50",
    "ReservationOutOfBoundExternalComments": "O campo ExternalComments excede o tamanho limite de 4000",
    "ReservationOutOfBoundGroupName": "O campo GroupName excede o tamanho limite de 50",
    "ReservationOutOfBoundInternalComments": "O campo InternalComments excede o tamanho limite de 4000",
    "ReservationOutOfBoundName": "O campo Name excede o tamanho limite de 50",
    "ReservationOutOfBoundReservationCode": "O campo ReservationCode excede o tamanho limite de 25",
    "ReservationOutOfBoundReservationVendorCode": "O campo ReservationVendorCode excede o tamanho limite de 20",
    "ReservationOutOfBoundVendorCode": "O campo VendorCode excede o tamanho limite de 20",
    "ReservationProposal": "Em tentativa",
    "Residential": "Residencial",
    "RoleMustHaveName": "Informe um valor para o campo Name",
    "RoleOutOfBoundName": "O campo Name excede o tamanho limite de 50",
    "RoomForeignKeyError": "Não foi possível excluir esse tipo de quarto pois ele já foi utilizado numa reserva",
    "RoomIsNotAvaiable": "A UH não está disponível para o período desejado",
    "RoomMustHaveNumber": "Informe um valor para o campo Number",
    "RoomMustHavePropertyId": "Informe um valor para o campo PropertyId",
    "RoomMustHaveRoomNumber": "Informe um valor para o campo RoomNumber",
    "RoomMustHaveRoomTypeId": "Informe um valor para o campo RoomTypeId",
    "RoomMustHaveTypeId": "Informe um valor para o campo TypeId",
    "RoomOutOfBoundBuilding": "O campo Building excede o tamanho limite de 20",
    "RoomOutOfBoundFloor": "O campo Floor excede o tamanho limite de 20",
    "RoomOutOfBoundNumber": "O campo Number excede o tamanho limite de 10",
    "RoomOutOfBoundRemarks": "O campo Remarks excede o tamanho limite de 4000",
    "RoomOutOfBoundRoomNumber": "O campo RoomNumber excede o tamanho limite de 10",
    "RoomOutOfBoundWing": "O campo Wing excede o tamanho limite de 20",
    "RoomTypeBedTypeMustHaveBedTypeId": "Informe um valor para o campo BedTypeId",
    "RoomTypeBedTypeMustHaveRoomTypeId": "Informe um valor para o campo RoomTypeId",
    "RoomTypeForeignKeyError": "Não foi possível excluir esse tipo de quarto pois ele já foi utilizado numa reserva",
    "RoomTypeHasReserveForward": "Tipo de Quarto tem reserva associada",
    "RoomTypeMustHaveAbbreviation": "Informe um valor para o campo Abbreviation",
    "RoomTypeMustHaveAdultCapacity": "Quantidade de adultos deve ser maior que zero",
    "RoomTypeMustHaveBedTypes": "Nenhum tipo de cama foi informado para o tipo de quarto",
    "RoomTypeMustHaveName": "Tipo de quarto deve ter um nome",
    "RoomTypeMustHaveOrder": "Tipo de quarto deve ter uma ordem",
    "RoomTypeMustHavePropertyId": "Informe um valor para o campo PropertyId",
    "RoomTypeOutOfBoundAbbreviation": "O campo Abbreviation excede o tamanho limite de 64",
    "RoomTypeOutOfBoundName": "O campo Name excede o tamanho limite de 100",
    "RoomTypeShouldNotDuplicateAbreviation": "Já existe um tipo de quarto com essa sigla",
    "StatusCategoryMustHaveName": "Informe um valor para o campo Name",
    "StatusCategoryOutOfBoundName": "O campo Name excede o tamanho limite de 40",
    "StatusHistoryInvalidCreationTime": "Informe uma valor valido para o campo CreationTime",
    "StatusHistoryMustHaveActivityHistoryId": "Informe um valor para o campo ActivityHistoryId",
    "StatusHistoryMustHaveHistoryId": "Informe um valor para o campo HistoryId",
    "StatusMustHaveCategoryId": "Informe um valor para o campo CategoryId",
    "StatusMustHaveName": "Informe um valor para o campo Name",
    "StatusMustHaveStatusCategoryId": "Informe um valor para o campo StatusCategoryId",
    "StatusOutOfBoundName": "O campo Name excede o tamanho limite de 20",
    "SubscriptionInvalidCreationTime": "Informe uma valor valido para o campo CreationTime",
    "SubscriptionInvalidDeletionTime": "Informe uma valor valido para o campo DeletionTime",
    "SubscriptionInvalidLastModificationTime": "Informe uma valor valido para o campo LastModificationTime",
    "TnfSettingsOutOfBoundName": "O campo Name excede o tamanho limite de 256",
    "TnfSettingsOutOfBoundValue": "O campo Value excede o tamanho limite de 2000",
    "TobeBilled": "Faturar",
    "ToConfirm": "A Confirmar",
    "TransportationTypeMustHaveTransportationTypeName": "Informe um valor para o campo TransportationTypeName",
    "TransportationTypeOutOfBoundTransportationTypeName": "O campo TransportationTypeName excede o tamanho limite de 20",
    "UserAccountMustHaveAccountId": "Informe um valor para o campo AccountId",
    "UserAccountMustHaveUserId": "Informe um valor para o campo UserId",
    "UserMustHavePersonId": "Informe um valor para o campo PersonId",
    "UserMustHavePreferredCulture": "Informe um valor para o campo PreferredCulture",
    "UserMustHavePreferredLanguage": "Informe um valor para o campo PreferredLanguage",
    "UserOutOfBoundPreferredCulture": "O campo PreferredCulture excede o tamanho limite de 5",
    "UserOutOfBoundPreferredLanguage": "O campo PreferredLanguage excede o tamanho limite de 5",
    "UserProfileMustHaveProfileId": "Informe um valor para o campo ProfileId",
    "UserProfileMustHaveUserId": "Informe um valor para o campo UserId",
    "WaitList": "Waiting List",
    "ReservationItemStatusCanNotBeChanged": "Status da acomodação não permite alterações",
    "ReservationNotModify": "A reserva não poder ser modificada",
    "AvailabilityGridTotal": "Total",
    "AvailabilityGridPercentage": "% Ocup.",
    "InvalidPeriodParameterAvailability": "O período deve ser 7, 15 ou 30",
    "InvalidDateParameterAvailability": "O campo data inicial deve ser uma data válida",
    "GuestNotFoundReservation": "O item não possui um reserva válida.",
    "ReservationItemWithStatusCheckinCanNotBeChanged": "A data de uma reserva com status em checkin só pode ser alterada para o mesmo período.",
    "ReservationItemRoomCanNotBeChanged": "É obrigatório informar o quarto de uma reserva em checkin",
    "ReservationItemCanNotBeChanged": "O status atual da reserva não permite modificações",
    "BillingAccountItemTypeCredit": "Crédito",
    "BillingAccountItemTypeDebit": "Débito",
    "BillingItemAddNotPosibleWithTaxAndEffectiveDate": "Não é possível adicionar a mesma taxa com datas de vigência sobrepostas.",
    "Opened": "Aberta",
    "Closed": "Fechada",
    "Sparse": "Avulsa",
    "Guest": "Hóspede",
    "Company": "Empresa",
    "CancelReservation": "Cancelamento da Reserva",
    "ReservationScheduling": "Agendamento de Reserva",
    "EventDeadline": "Prazo do Evento",
    "RoomTransference": "Transferência de quarto",
    "RoomBlocking": "Bloqueio do quarto",
    "Discount": "Desconto",
    "PurposeOfTrip": "Finalidade da viagem",
    "ArrivingBy": "Chegando por",
    "Check": "Cheque",
    "Money": "Dinheiro",
    "Debit": "Débito",
    "BillingItemTaxDisable": "Não é possivel ativar uma  das taxa",
    "InvalidPropertyPaymentTypeParameters": "Paramêtros Inválidos",
    "InvalidPropertyPaymentTypeMaximumInstallmentsQuantity": "Número de parcelas não condiz com a quantidade enviada",
    "DeleteReason": "Não é possivel deletar esse motivo de cancelamento pois ja esta sendo utilizado.",
    "DuplicateBillingItemEnumPaymentType": "Tipo de pagamento duplicado",
    "BillingAccountItemInvalidAmount": "Valor do montante inválido",
    "BillingAccountItemInvalidBillingItemId": "Tipo do item de cobrança inválido",
    "BillingAccountItemCanNotBeATax": "Lançamento inválido para a ação desejada, lançamento não pode ser uma taxa",
    "BillingAccountItemInvalidReasonId": "Razão inválida para o ação desejada",
    "DuplicateBillingAccountEnumReversal": "Lançamentos duplicados",
    "BillingAccountItemsAlreadyReversed": "Existe(em) lançamento(os) que já foram estornados anteriormente",
    "BillingAccountItemTypeReversal": "Estorno",
    "MainBillingAccountCanNotBeDeleted": "Conta principal não pode ser excluída",
    "BillingAccountWithBillingAccountItemsCanNotBeDeleted": "Conta com itens de lançamento não pode ser excluída",
    "Clean": "Limpo",
    "Dirty": "Sujo",
    "Maintenance": "Manutenção",
    "Inspection": "Inspeção",
    "Stowage": "Arrumação",
    "CreatedByHotel": "Criados pelo Hotel",
    "Vague": "Vago",
    "Busy": "Ocupado",
    "RoomBusyForPeriod": "Não é possível bloquear a UH selecionada pois existe uma reserva na data informada.",
    "RoomBlockingIsBlockedForPeriod": "Não foi possivel bloquear as UHs selecionadas, pois existe um bloqueio no periodo informado.",
    "RoomBlockingIsBlockedForPeriodByRoomId": "Não possivel bloquear a UH {0}, pois ja existe um bloqueio no periodo informado.",
    "BillingAccountDefaultName": "Geral",
    "GroupAccount": "Grupo",
    "BillingAccountWithBillingAccountItemsCanNotBeClosedOrBlocked": "Não foi possível efetuar a operação pois a conta não pode estar fechada ou bloqueada.",
    "RoomBlockingExistsReservationForPeriod": "Não é possível bloquear as UHs selecionadas pois existe uma reserva na data informada.",
    "Commom": "{0}",
    "BillingItemForeignKeyError": "Não foi possível excluir essa forma de pagamento, pois existem registros associados.",
    "CanNotReopenAnBillingAccountAlreadyOpen": "Você não pode reabrir uma conta já aberta.",
    "BillingAccountItemTypeDiscount": "Desconto",
    "BillingAccountItemTypePartial": "Parcial",
    "BillingAccountItemInvalidPaymentType": "Forma de Pagamento inválida.",
    "BillingAccountItemExceedingMaximumInstallmentsQuantity": "Número de parcelas maior que o permitido.",
    "AvailabilityGridBlocked": "Bloqueadas",
    "BillingAccountItemsCanNotBeChildren": "Não podem ser enviados itens que são filhos de outros.",
    "BillingAccountItemsCanNotBeDiscountItem": "Não é possível juntar itens que tiveram desconto aplicado.",
    "BillingAccountItemsCanNotBeReversalItem": "Não é possível juntar itens que tiveram desconto aplicado",
    "BillingAccountItemsMustBeFromTheSameDivision": "Os itens devem pertencer ao mesmo grupo que foi dividido anteriormente.",
    "BillingAccountItemsMustBeFromTheSameBillingAccount": "Os itens devem pertencer a mesma conta.",
    "BillingAccountDefaultNameConsolidated": "Consolidado",
    "BillingAccountDefaultNameMain": "Geral",
    "DuplicateRoomsInReservationItem": "Não podem existir acomodações com o mesmo quarto",
    "CheckIfExistIsMainBillingAccount": "Não é possivel criar uma conta principal, pois a mesma já foi criada.",
    "None": "Nenhuma",
    "Breakfast": "Café da Manhã",
    "Halfboard": "Meia Pensão",
    "Halfboardlunch": "Meia Pensão Almoço",
    "Halfboardlunchdinner": "Meia Pensão Jantar",
    "Fullboard": "Pensão Completa",
    "Allinclusive": "Tudo Incluso",
    "PropertyParameterHourFormatInvalid": "Campo do tipo Hora com formato Inválido",
    "PropertyParameterCheckoutLargerCheckin": "A hora de Checkout não pode ser maior que a hora do Check-in",
    "PropertyParameterAgeRangeInvalid": "Faixa Etária com idades sobrepostas",
    "RoomTypeMinimumRateLargerMaximumRate": "Tarifa Minima não pode ser maior que tarifa máxima.",
    "RoomTypeRateInvalid": "Valor do Rate Inválido",
    "RoomTypeCountFreeChildrenLargerCapacity": "O Total de cortesias informadas não pode ser maior que a quantidade máxima de crianças para o tipo de UH. ",
    "PropertyBaseRatePaxCanNotHaveAValue": "{0}º Pax do tipo de quarto {1} não deve possuir um valor",
    "PropertyBaseRateChildCanNotHaveValue": "Criança até {0} do tipo de quarto {1} não deve possuir um valor",
    "PropertyBaseRateHasInvalidMinOrMaxValue": "{0}º Pax do tipo de quarto {1} deve possuir um valor entre {2} e {3}",
    "PropertyBaseRatePaxMustHaveValue": "{0}º Pax do tipo de quarto {1} deve possuir um valor",
    "PropertyBaseRateChildMustHaveValue": "Criança até {0} anos do tipo de quarto {1} deve possuir um valor",
    "PropertyParameterIsNotDeactivateChildren_2": "Não é possivel desativar Criança 2, sem antes desativar a Criança 3",
    "GeneralParameters": "Parâmetros Gerais",
    "TypesOfService": "Tipos de Serviço",
    "AgeGroupChieldren": "Faixa Etária de Criança",
    "GuestRegistrationLocationRequiredCpfOrRg": "É necessário informar o endereço quando os documentos informados são CPF ou RG",
    "GuestRegistrationResponsibleDocument": "O responsável deve possuir um documento",
    "AgreementTypeMustHaveAgreementTypeName": "Informe um valor para o campo AgreementTypeName",
    "AgreementTypeOutOfBoundAgreementTypeName": "O campo AgreementTypeName excede o tamanho limite de 100",
    "ApplicationModuleMustHaveApplicationModuleName": "Informe um valor para o campo ApplicationModuleName",
    "ApplicationModuleOutOfBoundApplicationModuleName": "O campo ApplicationModuleName excede o tamanho limite de 100",
    "ApplicationModuleMustHaveApplicationModuleDescription": "Informe um valor para o campo ApplicationModuleDescription",
    "ApplicationModuleOutOfBoundApplicationModuleDescription": "O campo ApplicationModuleDescription excede o tamanho limite de 300",
    "ApplicationParameterMustHaveApplicationModuleId": "Informe um valor para o campo ApplicationModuleId",
    "ApplicationParameterMustHaveFeatureGroupId": "Informe um valor para o campo FeatureGroupId",
    "ApplicationParameterMustHaveParameterName": "Informe um valor para o campo ParameterName",
    "ApplicationParameterOutOfBoundParameterName": "O campo ParameterName excede o tamanho limite de 100",
    "ApplicationParameterOutOfBoundParameterDescription": "O campo ParameterDescription excede o tamanho limite de 500",
    "ApplicationParameterMustHaveParameterTypeId": "Informe um valor para o campo ParameterTypeId",
    "ApplicationParameterOutOfBoundParameterComponentType": "O campo ParameterComponentType excede o tamanho limite de 100",
    "ApplicationParameterOutOfBoundParameterMinValue": "O campo ParameterMinValue excede o tamanho limite de 100",
    "ApplicationParameterOutOfBoundParameterMaxValue": "O campo ParameterMaxValue excede o tamanho limite de 100",
    "BillingAccountOutOfBoundBillingAccountName": "O campo BillingAccountName excede o tamanho limite de 150",
    "BillingAccountInvalidReopeningDate": "Informe uma valor valido para o campo ReopeningDate",
    "BillingAccountItemMustHaveCurrencyId": "Informe um valor para o campo CurrencyId",
    "BillingAccountItemOutOfBoundCurrencySymbol": "O campo CurrencySymbol excede o tamanho limite de 10",
    "BillingAccountItemInvalidCreationTime": "Informe uma valor valido para o campo CreationTime",
    "BillingAccountItemInvalidLastModificationTime": "Informe uma valor valido para o campo LastModificationTime",
    "BillingInvoiceMustHaveBillingInvoiceNumber": "Informe um valor para o campo BillingInvoiceNumber",
    "BillingInvoiceOutOfBoundBillingInvoiceNumber": "O campo BillingInvoiceNumber excede o tamanho limite de 100",
    "BillingInvoiceMustHaveBillingInvoiceSeries": "Informe um valor para o campo BillingInvoiceSeries",
    "BillingInvoiceOutOfBoundBillingInvoiceSeries": "O campo BillingInvoiceSeries excede o tamanho limite de 5",
    "BillingInvoiceInvalidEmissionDate": "Informe uma valor valido para o campo EmissionDate",
    "BillingInvoiceInvalidCancelDate": "Informe uma valor valido para o campo CancelDate",
    "BillingInvoiceInvalidReason": "Esse motivo não é permitido para o cancelamento de nota",
    "BillingInvoiceInvalidEmissionDateOfCancel": "O mês da emissão da nota é diferente do mês vigente",
    "BillingInvoiceInvalidAccountClosed": "Não é possível cancelar a nota, pois a conta está fechada",
    "BillingInvoiceMustHavePropertyId": "Informe um valor para o campo PropertyId",
    "BillingInvoiceOutOfBoundExternalNumber": "O campo ExternalNumber excede o tamanho limite de 100",
    "BillingInvoiceOutOfBoundExternalSeries": "O campo ExternalSeries excede o tamanho limite de 5",
    "BillingInvoiceInvalidExternalEmissionDate": "Informe uma valor valido para o campo ExternalEmissionDate",
    "BillingInvoiceMustHaveBillingAccountId": "Informe um valor para o campo BillingAccountId",
    "BillingInvoiceOutOfBoundAditionalDetails": "O campo AditionalDetails excede o tamanho limite de 4000",
    "BillingInvoiceMustHaveBillingInvoicePropertyId": "Informe um valor para o campo BillingInvoicePropertyId",
    "BillingInvoiceModelMustHaveDescription": "Informe um valor para o campo Description",
    "BillingInvoiceModelOutOfBoundDescription": "O campo Description excede o tamanho limite de 100",
    "BillingInvoiceModelMustHaveTaxModel": "Informe um valor para o campo TaxModel",
    "BillingInvoiceModelOutOfBoundTaxModel": "O campo TaxModel excede o tamanho limite de 100",
    "BillingInvoicePropertyMustHaveBillingInvoicePropertySeries": "Informe um valor para o campo BillingInvoicePropertySeries",
    "BillingInvoicePropertyOutOfBoundBillingInvoicePropertySeries": "O campo BillingInvoicePropertySeries excede o tamanho limite de 5",
    "BillingInvoicePropertyMustHaveBillingInvoiceModelId": "Informe um valor para o campo BillingInvoiceModelId",
    "BillingInvoicePropertyMustHaveLastNumber": "Informe um valor para o campo LastNumber",
    "BillingInvoicePropertyOutOfBoundLastNumber": "O campo LastNumber excede o tamanho limite de 100",
    "BillingInvoicePropertyMustHavePropertyId": "Informe um valor para o campo PropertyId",
    "BillingInvoicePropertySupportedItemMustHaveBillingInvoicePropertyId": "Informe um valor para o campo BillingInvoicePropertyId",
    "BillingInvoicePropertySupportedItemMustHaveBillingItemId": "Informe um valor para o campo BillingItemId",
    "BillingInvoicePropertySupportedItemMustHavePropertyId": "Informe um valor para o campo PropertyId",
    "BillingInvoicePropertySupportedTypeMustHaveBillingItemTypeId": "Informe um valor para o campo BillingItemTypeId",
    "BillingInvoicePropertySupportedTypeMustHaveBillingInvoicePropertyId": "Informe um valor para o campo BillingInvoicePropertyId",
    "BillingInvoicePropertySupportedTypeMustHavePropertyId": "Informe um valor para o campo PropertyId",
    "BillingInvoiceServiceTypeMustHaveServiceCode": "Informe um valor para o campo ServiceCode",
    "BillingInvoiceServiceTypeOutOfBoundServiceCode": "O campo ServiceCode excede o tamanho limite de 20",
    "BillingInvoiceServiceTypeMustHaveServiceTypeName": "Informe um valor para o campo ServiceTypeName",
    "BillingInvoiceServiceTypeOutOfBoundServiceTypeName": "O campo ServiceTypeName excede o tamanho limite de 100",
    "BillingInvoiceServiceTypeMustHaveCityId": "Informe um valor para o campo CityId",
    "BusinessPartnerMustHaveBusinessPartnerName": "Informe um valor para o campo BusinessPartnerName",
    "BusinessPartnerOutOfBoundBusinessPartnerName": "O campo BusinessPartnerName excede o tamanho limite de 200",
    "BusinessPartnerOutOfBoundDescription": "O campo Description excede o tamanho limite de 300",
    "BusinessPartnerMustHaveUrl": "Informe um valor para o campo Url",
    "BusinessPartnerOutOfBoundUrl": "O campo Url excede o tamanho limite de 4000",
    "BusinessPartnerMustHaveCountrySubdivisionId": "Informe um valor para o campo CountrySubdivisionId",
    "BusinessPartnerMustHaveBusinessPartnerTypeId": "Informe um valor para o campo BusinessPartnerTypeId",
    "BusinessPartnerTypeMustHaveBusinessPartnerTypeName": "Informe um valor para o campo BusinessPartnerTypeName",
    "BusinessPartnerTypeOutOfBoundBusinessPartnerTypeName": "O campo BusinessPartnerTypeName excede o tamanho limite de 100",
    "BusinessPartnerTypeMustHaveDescription": "Informe um valor para o campo Description",
    "BusinessPartnerTypeOutOfBoundDescription": "O campo Description excede o tamanho limite de 300",
    "CompanyClientMustHavePersonType": "Informe um valor para o campo PersonType",
    "CompanyClientOutOfBoundPersonType": "O campo PersonType excede o tamanho limite de 1",
    "CompanyClientInvalidDateOfBirth": "Informe uma valor valido para o campo DateOfBirth",
    "CompanyClientMustHavePropertyCompanyClientCategoryId": "Informe um valor para o campo PropertyCompanyClientCategoryId",
    "CountryCurrencyMustHaveCountrySubdivisionId": "Informe um valor para o campo CountrySubdivisionId",
    "CountryCurrencyMustHaveCurrencyId": "Informe um valor para o campo CurrencyId",
    "CurrencyMustHaveCountrySubdivisionId": "Informe um valor para o campo CountrySubdivisionId",
    "CurrencyOutOfBoundTwoLetterIsoCode": "O campo TwoLetterIsoCode excede o tamanho limite de 2",
    "CurrencyMustHaveCurrencyName": "Informe um valor para o campo CurrencyName",
    "CurrencyOutOfBoundCurrencyName": "O campo CurrencyName excede o tamanho limite de 200",
    "CurrencyMustHaveAlphabeticCode": "Informe um valor para o campo AlphabeticCode",
    "CurrencyOutOfBoundAlphabeticCode": "O campo AlphabeticCode excede o tamanho limite de 10",
    "CurrencyMustHaveNumnericCode": "Informe um valor para o campo NumnericCode",
    "CurrencyOutOfBoundNumnericCode": "O campo NumnericCode excede o tamanho limite de 10",
    "CurrencyMustHaveSymbol": "Informe um valor para o campo Symbol",
    "CurrencyOutOfBoundSymbol": "O campo Symbol excede o tamanho limite de 10",
    "CurrencyExchangeInvalidCurrencyExchangeDate": "Informe uma valor valido para o campo CurrencyExchangeDate",
    "CurrencyExchangeMustHaveCurrencyId": "Informe um valor para o campo CurrencyId",
    "FeatureGroupMustHaveFeatureGroupName": "Informe um valor para o campo FeatureGroupName",
    "FeatureGroupOutOfBoundFeatureGroupName": "O campo FeatureGroupName excede o tamanho limite de 100",
    "FeatureGroupMustHaveDescription": "Informe um valor para o campo Description",
    "FeatureGroupOutOfBoundDescription": "O campo Description excede o tamanho limite de 300",
    "GuestRegistrationMustHavePropertyId": "Informe um valor para o campo PropertyId",
    "GuestRegistrationMustHaveTenantId": "Informe um valor para o campo TenantId",
    "GuestRegistrationMustHavePersonId": "Informe um valor para o campo PersonId",
    "GuestRegistrationMustHaveGuestId": "Informe um valor para o campo GuestId",
    "ReportsStatusMustHaveStatusName": "Informe um valor para o campo StatusName",
    "ReportsStatusOutOfBoundStatusName": "O campo StatusName excede o tamanho limite de 100",
    "ReportsStatusMustHaveDefaultColor": "Informe um valor para o campo DefaultColor",
    "ReportsStatusOutOfBoundDefaultColor": "O campo DefaultColor excede o tamanho limite de 6",
    "ReportsStatusPropertyMustHavePropertyId": "Informe um valor para o campo PropertyId",
    "ReportsStatusPropertyMustHaveReportsStatusId": "Informe um valor para o campo ReportsStatusId",
    "ReportsStatusPropertyMustHaveStatusName": "Informe um valor para o campo StatusName",
    "ReportsStatusPropertyOutOfBoundStatusName": "O campo StatusName excede o tamanho limite de 100",
    "ReportsStatusPropertyMustHaveColor": "Informe um valor para o campo Color",
    "ReportsStatusPropertyOutOfBoundColor": "O campo Color excede o tamanho limite de 6",
    "MealPlanTypeOutOfBoundMealPlanTypeCode": "O campo MealPlanTypeCode excede o tamanho limite de 10",
    "MealPlanTypeMustHaveMealPlanTypeName": "Informe um valor para o campo MealPlanTypeName",
    "MealPlanTypeOutOfBoundMealPlanTypeName": "O campo MealPlanTypeName excede o tamanho limite de 100",
    "ParameterTypeMustHaveParameterTypeName": "Informe um valor para o campo ParameterTypeName",
    "ParameterTypeOutOfBoundParameterTypeName": "O campo ParameterTypeName excede o tamanho limite de 100",
    "PersonOutOfBoundFullName": "O campo FullName excede o tamanho limite de 500",
    "PolicyTypeMustHavePolicyTypeName": "Informe um valor para o campo PolicyTypeName",
    "PolicyTypeOutOfBoundPolicyTypeName": "O campo PolicyTypeName excede o tamanho limite de 50",
    "PropertyBaseRateMustHavePropertyId": "Informe um valor para o campo PropertyId",
    "PropertyBaseRateInvalidDate": "Informe uma valor valido para o campo Date",
    "PropertyBaseRateMustHaveMealPlanTypeId": "Informe um valor para o campo MealPlanTypeId",
    "PropertyBaseRateMustHaveRoomTypeId": "Informe um valor para o campo RoomTypeId",
    "PropertyBaseRateMustHaveCurrencyId": "Informe um valor para o campo CurrencyId",
    "PropertyBaseRateOutOfBoundCurrencySymbol": "O campo CurrencySymbol excede o tamanho limite de 10",
    "PropertyBusinessPartnerMustHavePropertyId": "Informe um valor para o campo PropertyId",
    "PropertyBusinessPartnerMustHaveBusinessPartnerId": "Informe um valor para o campo BusinessPartnerId",
    "PropertyCompanyClientCategoryMustHavePropertyId": "Informe um valor para o campo PropertyId",
    "PropertyCompanyClientCategoryMustHavePropertyCompanyClientCategoryName": "Informe um valor para o campo PropertyCompanyClientCategoryName",
    "PropertyCompanyClientCategoryOutOfBoundPropertyCompanyClientCategoryName": "O campo PropertyCompanyClientCategoryName excede o tamanho limite de 100",
    "PropertyCurrencyExchangeMustHavePropertyId": "Informe um valor para o campo PropertyId",
    "PropertyCurrencyExchangeInvalidPropertyCurrencyExchangeDate": "Informe uma range de data valido, não pode ser anterior à data atual",
    "PropertyCurrencyExchangeMustHaveCurrencyId": "Informe um valor para o campo CurrencyId",
    "PropertyMealPlanTypeOutOfBoundPropertyMealPlanTypeCode": "O campo PropertyMealPlanTypeCode excede o tamanho limite de 10",
    "PropertyMealPlanTypeOutOfBoundPropertyMealPlanTypeName": "O campo PropertyMealPlanTypeName excede o tamanho limite de 100",
    "PropertyMealPlanTypeMustHavePropertyId": "Informe um valor para o campo PropertyId",
    "PropertyMealPlanTypeMustHaveMealPlanTypeId": "Informe um valor para o campo MealPlanTypeId",
    "PropertyParameterMustHavePropertyId": "Informe um valor para o campo PropertyId",
    "PropertyParameterMustHaveApplicationParameterId": "Informe um valor para o campo ApplicationParameterId",
    "PropertyParameterOutOfBoundPropertyParameterMinValue": "O campo PropertyParameterMinValue excede o tamanho limite de 100",
    "PropertyParameterOutOfBoundPropertyParameterMaxValue": "O campo PropertyParameterMaxValue excede o tamanho limite de 100",
    "PropertyPolicyMustHavePropertyId": "Informe um valor para o campo PropertyId",
    "PropertyPolicyMustHavePolicyTypeId": "Informe um valor para o campo PolicyTypeId",
    "PropertyPolicyOutOfBoundDescription": "O campo Description excede o tamanho limite de 4000",
    "RatePlanMustHaveAgreementTypeId": "Informe um valor para o campo AgreementTypeId",
    "RatePlanMustHaveAgreementName": "Informe um valor para o campo AgreementName",
    "RatePlanOutOfBoundAgreementName": "O campo AgreementName excede o tamanho limite de 100",
    "RatePlanInvalidStartDate": "Informe uma valor valido para o campo StartDate",
    "RatePlanInvalidEndDate": "Informe uma valor valido para o campo EndDate",
    "RatePlanMustHavePropertyId": "Informe um valor para o campo PropertyId",
    "RatePlanMustHaveRoomTypeId": "Informe um valor para o campo RoomTypeId",
    "RatePlanMustHavePropertyMealPlanTypeId": "Informe um valor para o campo PropertyMealPlanTypeId",
    "RatePlanMustHaveCurrencyId": "Informe um valor para o campo CurrencyId",
    "RatePlanOutOfBoundCurrencySymbol": "O campo CurrencySymbol excede o tamanho limite de 10",
    "RatePlanCommissionMustHaveRatePlanId": "Informe um valor para o campo RatePlanId",
    "RatePlanCommissionMustHaveBillingItemId": "Informe um valor para o campo BillingItemId",
    "RatePlanCompanyClientMustHaveCompanyClientId": "Informe um valor para o campo CompanyClientId",
    "RatePlanCompanyClientMustHaveRatePlanId": "Informe um valor para o campo RatePlanId",
    "RatePlanRoomTypeMustHaveRatePlanId": "Informe um valor para o campo RatePlanId",
    "RatePlanRoomTypeMustHaveRoomTypeId": "Informe um valor para o campo RoomTypeId",
    "ReservationBudgetMustHaveCurrencyId": "Informe um valor para o campo CurrencyId",
    "ReservationBudgetOutOfBoundCurrencySymbol": "O campo CurrencySymbol excede o tamanho limite de 10",
    "RoomMustHaveReportsStatusPropertyId": "Informe um valor para o campo ReportsStatusPropertyId",
    "RoomInvalidReportsStatusLastModificationTime": "Informe uma valor valido para o campo ReportsStatusLastModificationTime",
    "RoomBlockingMustHavePropertyId": "Informe um valor para o campo PropertyId",
    "RoomBlockingMustHaveRoomId": "Informe um valor para o campo RoomId",
    "RoomBlockingInvalidBlockingStartDate": "Informe uma valor valido para o campo BlockingStartDate",
    "RoomBlockingInvalidBlockingEndDate": "Informe uma valor valido para o campo BlockingEndDate",
    "RoomBlockingOutOfBoundComments": "O campo Comments excede o tamanho limite de 4000",
    "RoomTypeMustHaveDistributionCode": "Informe um valor para o campo DistributionCode",
    "RoomTypeOutOfBoundDistributionCode": "O campo DistributionCode excede o tamanho limite de 100",
    "UserMustHaveName": "Informe um valor para o campo Name",
    "UserOutOfBoundName": "O campo Name excede o tamanho limite de 300",
    "UserOutOfBoundEmail": "O campo Email excede o tamanho limite de 600",
    "RatePlanNotNameAgreementSamePeriod": "Não é possivel criar um acordo com o mesmo nome, no mesmo período de vigência.",
    "RatePlanNotDateStartGreaterThanDateEnd": "Data Início não pode ser maior que a Data Final.",
    "RatePlanRoomTypeNotNegative": "Não permitido percentual negativo.",
    "DirectSelling": "Venda direta - B2C",
    "BusinessSale": "Venda empresarial - B2B",
    "PropertyBaseRateInvalidPeriod": "Nº de dias selecionado é {0}(Limite Máx: 1.000 dias)",
    "BillingItemCategoryForeignKeyError": "Não foi possível excluir esse tipo de categoria pois ele já foi utilizado.",
    "PropertyCompanyClientCategoryForeignKeyError": "Não foi possível excluir esse tipo de categoria pois ele já foi utilizado.",
    "PropertyBaseRateWasNotFound": "Tarifa base não foi localizada.",
    "ReservationBudgetDayWasNotFound": "Existem dias faltantes no orçamento tarifário.",
    "ReservationBudgetInvalidDiscount": "Desconto não bate com o valor manual informado",
    "PropertyBaseRateName": "Tarifa base",
    "PropertyCurrencyExchangeIsExistQuotationForPeriod": "Não foi possivel inserir cotação, pois ja existe uma cotação com a moeda selecionada no periodo informado.",
    "PropertyCurrencyExchangeIsOnlyDateFuture": "Não é permitido alterar data passadas.",
    "BillingAccountItemsCantHasAnInvoiceLinked": "Não é permitido alterar lançamentos com documentos fiscais vinculados.",
    "BillingAccountItemCantHasAnInvoiceLinked": "Não é permitido alterar lançamento com documento fiscal vinculado.",
    "BillingAccountInvoiceNFeioComunicationError": "Não foi possível se comunicar com o serviço que emite as notas fiscais.",
    "BillingAccountItemWithoutBillingInvoicePropertySupportedType": "Existe(em) lançamento(s) de serviço(s) que não possui(em) parametrização de documento fiscal",
    "ConfirmationReservation": "Confirmação de Reserva.",
    "PropertyAuditProcessInvalidPropertySystemDate": "A data do sistema não foi definida",
    "PropertyParameterMustHaveDailyBillingItem": "O serviço da diária não foi definido",
    "PropertyParameterMustHaveTimeZone": "O Time Zone não foi definido",
    "BillingAccountHasAlreadyCreated": "Não foi possível criar a conta pois já existe uma conta principal criada.",
    "InvalidCheckoutReservationItemHasOpenBillingAccount": "Não é possível efetuar o checkout pois existem contas que não foram fechadas.",
    "GratuityTypeInternalUsage": "Gratuidade: Uso interno",
    "GratuityTypeCourtesy": "Gratuidade: Cortesia",
    "RoomUKKeyError": "Já existe um quarto com esse número de UH para este Hotel",
    "CreateNewUser": "Já existe uma conta de usuário com este email.",
    "InvalidUser": "Usuário inválido",
    "UserNotFound": "Usuário não encontrado.",
    "InvalidUserOrPassword": "Usuário ou senha inválidos",
    "InvalidToken": "Token inválido",
    "QuotationCurrent": "Cotação do dia não atualizada",
    "PersonAndGuestRegistrationSearchByGlobalPerson": "No sistema",
    "PersonAndGuestRegistrationSearchByGuest": "No seu Hotel",
    "Reversal": "Estorno",
    "ReopenBillingAccount": "Reabrir Conta",
    "Blocked": "Bloqueada",
    "EmptyFilter": "Ao menos 1 parâmetro do filtro deve ser preenchido.",
    "ReportsStatusDirtyNotExisting": "Status de governança sujo não foi configurado. Favor incluir os status de governança.",
    "PropertyMustHaveLocationToConfigureParameters": "O Hotel deve conter um endereço para prosseguir com o cadastro de parâmetros.",
    "BillingInvoicePropertySeriesLength": "O campo número da série excede o tamanho limite de 5.",
    "ChannelMustHavePermition": "Você não tem permissão para realizar está ação",
    "EmailSubjectForgotPassword": "Thex - Esqueci a senha",
    "EmailBodyForgotPassword": "Clique no link",
    "EmailSubjectUserInvitation": "Thex - Novo Usuário",
    "EmailBodyUserInvitation": "Clique no link para criar um novo usuário",
    "EmailSubjectFiscalDocument": "Thex - Nota Fiscal",
    "EmailBodyFiscalDocument": "Ocorreu um erro ao tentar processar uma nota fiscal",
    "BaseRate": "Tarifa Base",
    "FlatRate": "Tarifa Fixa",
    "PropertyMealPlanTypeDoesNotExist": "O tipo de pensão não foi encontrado",
    "DocumentInvalid": "O número do documento está invalido"
  }
}