﻿{
  "culture": "en-US",
  "texts": {
    "ArrivingByBus": "Bus",
    "ArrivingByCar": "Car",
    "ArrivingByMotorcycle": "Motorcycle",
    "ArrivingByOther": "Other",
    "ArrivingByPlane": "Plane",
    "ArrivingByShipOrFerryBoat": "Ship/FerryBoat",
    "ArrivingByTrain": "Train"
  }
}